
2020-07-08 01:03:28 phone=&amp;url=http://mocthanh.yhocbitruyen.online/&amp;ref=http://m.facebook.com/
2020-07-08 01:10:18 name=Dung&phone=0584673444&amp;url=https://www.baithaoduochay.site/xuongkhopmocthanh1950&amp;ref=https://builder.ladipage.com/editor/5f04b936d4234516b99af61a
2020-07-08 01:10:19 name=Dung&phone=0584673444&amp;url=https://www.baithaoduochay.site/xuongkhopmocthanh1950&amp;ref=https://builder.ladipage.com/editor/5f04b936d4234516b99af61a
2020-07-08 01:27:35 phone=&amp;url=https://www.tinnongtrongngay.online/camkethoantientien&amp;ref=http://m.facebook.com
2020-07-08 01:32:56 phone=&amp;url=http://cotruyen.trituedongy.online/&amp;ref=http://m.facebook.com/
2020-07-08 01:32:57 phone=&amp;url=http://cotruyen.trituedongy.online/&amp;ref=http://m.facebook.com/
2020-07-08 01:49:14 phone=&amp;url=https://www.tinnongtrongngay.online/camkethoantientien&amp;ref=http://m.facebook.com/
2020-07-08 01:49:16 phone=&amp;url=https://www.tinnongtrongngay.online/camkethoantientien&amp;ref=http://m.facebook.com/
2020-07-08 02:47:56 phone=&amp;url=https://www.tinnongtrongngay.online/camkethoantientien&amp;ref=http://m.facebook.com/
2020-07-08 03:52:38 phone=&amp;url=https://www.tinnongtrongngay.online/camkethoantientien&amp;ref=http://m.facebook.com/
2020-07-08 06:07:40 phone=&amp;url=https://www.tinnongtrongngay.online/camkethoantientien&amp;ref=http://m.facebook.com/
2020-07-08 06:20:44 phone=&amp;url=https://www.tinnongtrongngay.online/camkethoantientien&amp;ref=http://m.facebook.com/
2020-07-08 07:03:29 phone=&amp;url=https://www.vovavovan.site/dgs&amp;ref=https://chinhcho.khongphaichinh.online/
2020-07-08 07:17:38 phone=&amp;url=http://mocthanh.dongythucdung.online/&amp;ref=http://m.facebook.com/
2020-07-08 07:17:56 phone=&amp;url=http://mocthanh.dongythucdung.online/&amp;ref=http://m.facebook.com/
2020-07-08 07:20:33 phone=&amp;url=http://cotruyen.trituedongy.online/&amp;ref=http://m.facebook.com/
2020-07-08 07:24:57 phone=0987978366&amp;url=http://mocthanh.yhocbitruyen.online/&amp;ref=http://m.facebook.com/
2020-07-08 07:42:35 phone=&amp;url=http://mocthanh.dongythucdung.online/&amp;ref=http://m.facebook.com/
2020-07-08 07:52:19 message=%C4%90au%20nh%E1%BB%A9c%20s%C6%B0%C6%A1ng%20kh%E1%BB%9Bp%20%C4%91%E1%BA%A7u%20g%E1%BB%91i%20a&phone=0977116652&name=Nguy%E1%BB%85n%20v%C4%83n%20anh&amp;url=http://xkmt.thaoduogiatryenmocthanh.xyz/&amp;ref=http://m.facebook.com/
2020-07-08 07:54:05 phone=0977116652&amp;url=http://xkmt.thaoduogiatryenmocthanh.xyz/&amp;ref=http://m.facebook.com/
2020-07-08 07:59:21 phone=0988694710&amp;url=http://mocthanh.yhocbitruyen.online/&amp;ref=http://m.facebook.com/
2020-07-08 08:00:35 phone=03994548646&amp;url=https://www.tinnongtrongngay.online/camkethoantientien&amp;ref=http://m.facebook.com/
2020-07-08 08:03:59 phone=&amp;url=http://mocthanh.dongythucdung.online/&amp;ref=http://m.facebook.com/
2020-07-08 08:04:55 name=0329604354&phone=&message=Dau%20x%C6%B0%C6%A1ng%20kh%E1%BB%9Bp&amp;url=https://www.tinnongtrongngay.online/camkethoantientien&amp;ref=http://m.facebook.com/
2020-07-08 08:05:16 name=0329604354&phone=0329604354&message=Dau%20x%C6%B0%C6%A1ng%20kh%E1%BB%9Bp&amp;url=https://www.tinnongtrongngay.online/camkethoantientien&amp;ref=http://m.facebook.com/
2020-07-08 08:07:49 phone=0983937624&amp;url=http://mocthanh.dongythucdung.online/&amp;ref=http://m.facebook.com/
2020-07-08 08:14:31 phone=&amp;url=https://www.tinnongtrongngay.online/camkethoantientien&amp;ref=http://m.facebook.com/
2020-07-08 08:24:37 phone=0326996523&amp;url=http://mocthanh.dongythucdung.online/&amp;ref=http://m.facebook.com/
2020-07-08 08:30:50 phone=&amp;url=http://mocthanh.yhocbitruyen.online/&amp;ref=http://m.facebook.com/
2020-07-08 08:38:49 name=L%C3%AA%20th%E1%BB%8B%20h%E1%BA%B1ng%20con%20mu%E1%BB%91n%20%C4%91c%20tu%20v%E1%BA%A5n%20&phone=0336465380&message=Con%20b%E1%BB%8B%20%C4%91au%20nh%E1%BB%A9c%20v%C3%B9ng%20eo%20m%C3%B4ng%20%C4%91%C3%B9i%20b%C3%AAn%20tr%C3%A1i%20&amp;url=https://www.chuatrixuongkhop.site/daunhucxuongkhop?utm_source=xuongkhop-lethimieu&utm_medium=mauqc3&gclid=Cj0KCQjwupD4BRD4ARIsABJMmZ_4S-W8y-_ixwMW1Y9_2lvyeq73MQv3f7sZzD0Pv6DZZFmhxr0QOG0aAp6PEALw_wcB&amp;ref=https://www.google.com/
2020-07-08 09:00:24 phone=0386383566&amp;url=http://mocthanh.dongythucdung.online/&amp;ref=http://m.facebook.com/
2020-07-08 09:00:30 phone=0386383566&amp;url=http://mocthanh.dongythucdung.online/&amp;ref=http://m.facebook.com/
2020-07-08 09:01:07 phone=&amp;url=http://mocthanh.yhocbitruyen.online/&amp;ref=http://m.facebook.com/
2020-07-08 09:01:57 phone=0399747378&amp;url=http://mocthanh.yhocbitruyen.online/&amp;ref=http://m.facebook.com/
2020-07-08 09:02:16 phone=0399747378&amp;url=http://mocthanh.yhocbitruyen.online/&amp;ref=http://m.facebook.com/
2020-07-08 09:03:09 phone=0399747378&amp;url=http://mocthanh.yhocbitruyen.online/&amp;ref=http://m.facebook.com/
2020-07-08 09:05:26 phone=&amp;url=https://www.tinnongtrongngay.online/camkethoantientien&amp;ref=http://m.facebook.com/
2020-07-08 09:08:21 phone=&amp;url=https://www.vovavovan.site/dgs&amp;ref=https://chinhcho.khongphaichinh.online/
2020-07-08 09:08:23 phone=&amp;url=https://www.vovavovan.site/dgs&amp;ref=https://chinhcho.khongphaichinh.online/
2020-07-08 09:13:34 phone=&amp;url=https://www.tinnongtrongngay.online/camkethoantientien&amp;ref=http://m.facebook.com/
2020-07-08 09:16:50 phone=&amp;url=http://mocthanh.dongythucdung.online/&amp;ref=http://m.facebook.com/
2020-07-08 09:19:02 phone=&amp;url=https://www.tinnongtrongngay.online/camkethoantientien&amp;ref=http://m.facebook.com/
2020-07-08 09:27:18 phone=0976842940&amp;url=http://mocthanh.yhocbitruyen.online/&amp;ref=http://m.facebook.com
2020-07-08 09:40:26 phone=&amp;url=http://cotruyen.trituedongy.online/&amp;ref=http://m.facebook.com/
2020-07-08 09:50:31 phone=&amp;url=https://mocthanhmieu.deptuoi.online/&amp;ref=http://m.facebook.com/
2020-07-08 09:50:42 phone=&amp;url=http://mocthanh.yhocbitruyen.online/&amp;ref=http://m.facebook.com/
2020-07-08 09:59:10 phone=&amp;url=http://mocthanh.dongythucdung.online/&amp;ref=http://m.facebook.com/
2020-07-08 10:04:38 phone=&amp;url=http://cotruyen.trituedongy.online/&amp;ref=http://m.facebook.com/
2020-07-08 10:18:57 phone=0352292089&amp;url=http://mocthanh.dongythucdung.online/&amp;ref=http://m.facebook.com/
2020-07-08 10:19:10 phone=&amp;url=http://mocthanh.dongythucdung.online/&amp;ref=http://m.facebook.com/
2020-07-08 10:29:51 phone=&amp;url=http://mocthanh.dongythucdung.online/&amp;ref=http://m.facebook.com/
2020-07-08 10:37:45 phone=0946232387&amp;url=https://www.tinnongtrongngay.online/camkethoantientien&amp;ref=http://m.facebook.com/
2020-07-08 10:38:13 phone=0987312333&amp;url=http://preview.pagedemo.me/5f053cad18a7b816a0996cad&amp;ref=
2020-07-08 10:38:14 phone=0987312333&amp;url=http://preview.pagedemo.me/5f053cad18a7b816a0996cad&amp;ref=
2020-07-08 10:38:17 phone=0987312333&amp;url=http://preview.pagedemo.me/5f053cad18a7b816a0996cad&amp;ref=
2020-07-08 10:38:19 phone=0987312333&amp;url=http://preview.pagedemo.me/5f053cad18a7b816a0996cad&amp;ref=
2020-07-08 10:38:21 phone=0987312333&amp;url=http://preview.pagedemo.me/5f053cad18a7b816a0996cad&amp;ref=
2020-07-08 10:38:30 message=6&phone=0987312333&name=1&amp;url=http://preview.pagedemo.me/5f053cad18a7b816a0996cad&amp;ref=
2020-07-08 10:38:31 phone=&amp;url=https://www.tinnongtrongngay.online/camkethoantientien&amp;ref=http://m.facebook.com/
2020-07-08 10:38:37 name=3&phone=0987312333&message=7&amp;url=http://preview.pagedemo.me/5f053cad18a7b816a0996cad&amp;ref=
2020-07-08 10:39:11 phone=&amp;url=https://www.tinnongtrongngay.online/camkethoantientien&amp;ref=http://m.facebook.com/
2020-07-08 10:46:19 message=Dau%20xuong%20song%2Ckhi%20ngoi%20xuong%20%2Cluc%20dung%20len%20di%20phai%20lung%20vai%20buc%20moi%20thang%20lung%20duoc%20&phone=0946232387&name=Trinh%20thi%20thanh%20thuy%20&amp;url=https://www.tinnongtrongngay.online/camkethoantientien&amp;ref=http://m.facebook.com/
2020-07-08 11:00:42 phone=&amp;url=http://cotruyen.trituedongy.online/&amp;ref=http://m.facebook.com/
2020-07-08 11:21:59 phone=&amp;url=http://mocthanh.yhocbitruyen.online/&amp;ref=http://m.facebook.com/
2020-07-08 11:30:57 name=Truong.hong.tuan&phone=0332688349&message=&amp;url=http://xkmt.thaoduogiatryenmocthanh.xyz/&amp;ref=http://m.facebook.com/
2020-07-08 11:31:28 name=Truong.hong.tuan&phone=0332688349&message=Te.tay.te.dui.&amp;url=http://xkmt.thaoduogiatryenmocthanh.xyz/&amp;ref=http://m.facebook.com/
2020-07-08 11:31:47 phone=&amp;url=http://xkmt.thaoduogiatryenmocthanh.xyz/&amp;ref=http://m.facebook.com/
2020-07-08 11:36:33 phone=0332688349&amp;url=http://xkmt.thaoduogiatryenmocthanh.xyz/&amp;ref=http://m.facebook.com/
2020-07-08 11:37:09 phone=0982196071&amp;url=https://www.tinnongtrongngay.online/camkethoantientien&amp;ref=http://m.facebook.com/
2020-07-08 11:37:15 phone=&amp;url=https://www.tinnongtrongngay.online/camkethoantientien&amp;ref=http://m.facebook.com/
2020-07-08 11:37:33 phone=&amp;url=http://mocthanh.dongythucdung.online/&amp;ref=http://m.facebook.com/
2020-07-08 11:40:33 phone=&amp;url=http://mocthanh.dongythucdung.online/&amp;ref=http://m.facebook.com/
2020-07-08 11:42:34 phone=0918877434&amp;url=https://www.tinnongtrongngay.online/camkethoantientien&amp;ref=http://m.facebook.com/
2020-07-08 11:43:29 name=Truong.hong.tuan&phone=0332688349&message=&amp;url=http://xkmt.thaoduogiatryenmocthanh.xyz/&amp;ref=http://m.facebook.com/
2020-07-08 11:43:49 phone=&amp;url=http://xkmt.thaoduogiatryenmocthanh.xyz/&amp;ref=http://m.facebook.com/
2020-07-08 11:44:06 phone=0332688349&amp;url=http://xkmt.thaoduogiatryenmocthanh.xyz/&amp;ref=http://m.facebook.com/
2020-07-08 11:44:14 phone=0332688349&amp;url=http://xkmt.thaoduogiatryenmocthanh.xyz/&amp;ref=http://m.facebook.com/
2020-07-08 11:45:43 phone=0373812311&amp;url=http://mocthanh.dongythucdung.online/&amp;ref=http://m.facebook.com/
2020-07-08 11:46:13 phone=0909004869&amp;url=https://www.tinnongtrongngay.online/camkethoantientien&amp;ref=http://m.facebook.com/
2020-07-08 11:46:39 phone=0399979784&amp;url=http://mocthanh.yhocbitruyen.online/&amp;ref=http://m.facebook.com/
2020-07-08 12:09:26 phone=&amp;url=https://www.tinnongtrongngay.online/camkethoantientien&amp;ref=http://m.facebook.com/
2020-07-08 12:27:23 phone=&amp;url=http://xkmt.thaoduogiatryenmocthanh.xyz/&amp;ref=http://m.facebook.com/
2020-07-08 12:27:44 phone=&amp;url=http://xkmt.thaoduogiatryenmocthanh.xyz/&amp;ref=http://m.facebook.com/
2020-07-08 12:31:56 phone=&amp;url=http://cotruyen.trituedongy.online/&amp;ref=http://m.facebook.com/
2020-07-08 12:31:58 phone=&amp;url=http://cotruyen.trituedongy.online/&amp;ref=http://m.facebook.com/
2020-07-08 12:40:29 phone=0375892560&amp;url=http://mocthanh.yhocbitruyen.online/?fbclid=IwAR3kzYj_pNiPjnLptsdQV2F45rAZB48U8Zp5SMYhE5CFwRK5n8iKuWuU1SY&amp;ref=https://l.facebook.com/
2020-07-08 13:04:54 phone=&amp;url=http://cotruyen.trituedongy.online/&amp;ref=http://m.facebook.com/
2020-07-08 13:10:03 phone=0988448108&amp;url=http://mocthanh.yhocbitruyen.online/&amp;ref=http://m.facebook.com/
2020-07-08 13:19:14 phone=0969799982&amp;url=http://mocthanh.yhocbitruyen.online/&amp;ref=http://m.facebook.com/
2020-07-08 13:21:40 name=&phone=&amp;url=https://www.chuatrixuongkhop.site/daunhucxuongkhop?utm_source=xuongkhop-thoaihoa&utm_medium=mauqc3&gclid=Cj0KCQjwupD4BRD4ARIsABJMmZ9p0gK6Uic7yUMXzKrmAChGknkKTLkN5iy-CjjdprN71yZjRrACCXAaAs4FEALw_wcB&amp;ref=https://www.google.com/
2020-07-08 13:22:15 name=Amy&phone=0708502574&amp;url=https://www.chuatrixuongkhop.site/daunhucxuongkhop?utm_source=xuongkhop-thoaihoa&utm_medium=mauqc3&gclid=Cj0KCQjwupD4BRD4ARIsABJMmZ9p0gK6Uic7yUMXzKrmAChGknkKTLkN5iy-CjjdprN71yZjRrACCXAaAs4FEALw_wcB&amp;ref=https://www.google.com/
2020-07-08 13:29:15 phone=&amp;url=http://mocthanh.yhocbitruyen.online/&amp;ref=http://m.facebook.com/
2020-07-08 13:32:41 phone=&amp;url=http://mocthanh.yhocbitruyen.online/&amp;ref=http://m.facebook.com/
2020-07-08 13:33:43 phone=&amp;url=http://mocthanh.dongythucdung.online/&amp;ref=http://m.facebook.com/
2020-07-08 13:52:16 phone=&amp;url=http://mocthanh.dongythucdung.online/&amp;ref=http://m.facebook.com/
2020-07-08 13:54:29 phone=&amp;url=http://mocthanh.dongythucdung.online/&amp;ref=http://m.facebook.com/
2020-07-08 14:40:04 phone=&amp;url=http://cotruyen.trituedongy.online/&amp;ref=http://m.facebook.com/
2020-07-08 15:08:21 phone=&amp;url=https://www.trungtamxuongkhop.site/xuongkhopxumuong?gclid=Cj0KCQjw3ZX4BRDmARIsAFYh7ZK9o9-m8AIudOv-4AGpukrynmXmP4QW5dKa6D8eAvZLG4vpmrY4tqoaAs_mEALw_wcB&amp;ref=https://www.google.com/
2020-07-08 15:08:24 phone=&amp;url=https://www.trungtamxuongkhop.site/xuongkhopxumuong?gclid=Cj0KCQjw3ZX4BRDmARIsAFYh7ZK9o9-m8AIudOv-4AGpukrynmXmP4QW5dKa6D8eAvZLG4vpmrY4tqoaAs_mEALw_wcB&amp;ref=https://www.google.com/
2020-07-08 15:35:11 name=L%C3%AA%20v%C4%83n%20Ti%C3%AAu%20&phone=0941033597&message=Tho%C3%A1i%20h%C3%B3a%20c%E1%BB%99t%20s%E1%BB%91ng%20%C4%91au%20nh%E1%BB%A9c%20s%C6%B0%C6%A1ng%20kh%C6%A1p%20t%C3%AA%20b%C3%AC%20ch%C3%A2n%20tay%20&amp;url=http://cotruyen.trituedongy.online/&amp;ref=http://m.facebook.com/
2020-07-08 15:42:06 phone=&amp;url=http://mocthanh.yhocbitruyen.online/&amp;ref=http://m.facebook.com/
2020-07-08 15:42:36 phone=0395820551&amp;url=http://mocthanh.yhocbitruyen.online/&amp;ref=http://m.facebook.com/
2020-07-08 15:43:06 phone=0988582732&amp;url=http://mocthanh.yhocbitruyen.online/&amp;ref=http://m.facebook.com/
2020-07-08 16:17:43 phone=&amp;url=http://cotruyen.trituedongy.online/&amp;ref=http://m.facebook.com
2020-07-08 16:25:24 phone=0987654321&amp;url=http://mocthanh.dongythucdung.online/?fbclid=IwAR3ul7BcCMxWIrPKbmct5ra1NxiSr1rv53cx15ddsMrPMgHIX6Qlk7akDBE&amp;ref=https://lm.facebook.com/
2020-07-08 16:28:29 phone=0987654321&amp;url=https://www.quocvietnguyen.online/q1&amp;ref=https://www.facebook.com/
2020-07-08 16:28:34 phone=0987654321&amp;url=https://www.quocvietnguyen.online/q1&amp;ref=https://www.facebook.com/
2020-07-08 16:29:25 phone=0987654321&amp;url=https://www.quocvietnguyen.online/q1&amp;ref=https://www.facebook.com/
2020-07-08 16:29:26 phone=0987654321&amp;url=https://www.quocvietnguyen.online/q1&amp;ref=https://www.facebook.com/
2020-07-08 16:29:38 phone=0987654321&amp;url=https://www.quocvietnguyen.online/q1&amp;ref=https://www.facebook.com/
2020-07-08 16:30:51 phone=0987654321&amp;url=https://www.quocvietnguyen.online/q1&amp;ref=https://www.facebook.com/
2020-07-08 16:30:54 phone=0987654321&amp;url=https://www.quocvietnguyen.online/q1&amp;ref=https://www.facebook.com/
2020-07-08 16:30:56 phone=0987654321&amp;url=https://www.quocvietnguyen.online/q1&amp;ref=https://www.facebook.com/
2020-07-08 16:30:57 phone=0987654321&amp;url=https://www.quocvietnguyen.online/q1&amp;ref=https://www.facebook.com/
2020-07-08 16:55:53 phone=0945587575&amp;url=http://cotruyen.trituedongy.online/&amp;ref=http://m.facebook.com/
2020-07-08 17:03:00 phone=&amp;url=http://cotruyen.trituedongy.online/&amp;ref=http://m.facebook.com/
2020-07-08 17:08:15 phone=&amp;url=http://cotruyen.trituedongy.online/&amp;ref=http://m.facebook.com/
2020-07-08 17:11:58 phone=&amp;url=http://cotruyen.trituedongy.online/&amp;ref=http://m.facebook.com/
2020-07-08 17:12:07 phone=&amp;url=http://cotruyen.trituedongy.online/&amp;ref=http://m.facebook.com/
2020-07-08 17:32:46 message=%C4%90au%20nh%E1%BB%A9c%202%20%C4%91%E1%BA%A7u%20g%E1%BB%91i%20th%C6%B0%E1%BB%9Dng%20xuy%C3%AAn%2Cl%C3%A2u%20c%C3%B3%20c%C3%B3%20tr%C3%ACnh%20tr%E1%BA%A1ng%20%C4%91au%20d%C6%B0%E1%BB%9Bi%20l%C3%B2ng%20b%C3%A0n%20ch%C3%A2n%20v%C3%A0%20g%C3%B3t%20ch%C3%A2n.%C4%91i%20l%E1%BA%A1i%20r%E1%BA%A5t%20kh%C3%B3%20kh%E1%BA%AFn&phone=0985994442&name=Th%C3%A1i%20anh%20nh%E1%BA%ADt&amp;url=https://www.trungtamxuongkhop.site/xuongkhopxumuong?gclid=EAIaIQobChMIz9_cy7m96gIVBqyWCh3KNAhcEAAYASAAEgIOvvD_BwE&amp;ref=https://www.google.com.vn
2020-07-08 17:37:41 phone=&amp;url=https://www.trungtamxuongkhop.site/xuongkhopxumuong?gclid=EAIaIQobChMI_9a9iLu96gIVCFdgCh2oTwpNEAAYAiAAEgLY1_D_BwE&amp;ref=https://www.google.com/
2020-07-08 21:12:29 phone=&amp;url=https://www.tinnongtrongngay.online/camkethoantientien&amp;ref=http://m.facebook.com/
2020-07-08 21:13:05 phone=&amp;url=https://www.tinnongtrongngay.online/camkethoantientien&amp;ref=http://m.facebook.com/
2020-07-08 21:13:21 phone=0932111572&amp;url=https://www.tinnongtrongngay.online/camkethoantientien&amp;ref=http://m.facebook.com/
2020-07-08 22:30:56 message=thoa%CC%81t%20vi%CC%A3%20%C4%91i%CC%83a%20%C4%91%C3%AA%CC%A3m%20%C4%91%C3%B4%CC%81t%20456%20hay%20%C4%91au%20mo%CC%89i%20va%CC%80%20bi%CC%A3%20t%C3%AA%20bi%20ba%CC%89%20vai%20va%CC%80%20tay&phone=0979958276&name=vu%CC%83%20thi%20ph%C6%B0%C6%A1ng%20&amp;url=http://mocthanh.dongythucdung.online/&amp;ref=http://m.facebook.com/
2020-07-08 22:35:46 phone=0979958276&amp;url=http://mocthanh.dongythucdung.online/&amp;ref=http://m.facebook.com/
2020-07-08 22:35:54 phone=0979958276&amp;url=http://mocthanh.dongythucdung.online/&amp;ref=http://m.facebook.com/
2020-07-08 22:38:07 phone=&amp;url=http://mocthanh.dongythucdung.online/&amp;ref=http://m.facebook.com/
2020-07-09 11:11:04 name=&phone=&amp;url=https://www.chuatrixuongkhop.site/daunhucxuongkhop?utm_source=xuongkhop-tebitaychan&utm_medium=mauqc2&gclid=Cj0KCQjw3ZX4BRDmARIsAFYh7ZJJflQUBzMAezqzdYyWgf_ZfXiJEoI7PhiDOXryJf5zWMccdXe898saAj5bEALw_wcB&amp;ref=https://www.google.com/
2020-07-09 11:11:04 name=&phone=&amp;url=https://www.chuatrixuongkhop.site/daunhucxuongkhop?utm_source=xuongkhop-tebitaychan&utm_medium=mauqc2&gclid=Cj0KCQjw3ZX4BRDmARIsAFYh7ZJJflQUBzMAezqzdYyWgf_ZfXiJEoI7PhiDOXryJf5zWMccdXe898saAj5bEALw_wcB&amp;ref=https://www.google.com/
2020-07-09 11:24:17 name=V%C3%B5%20th%E1%BB%8B%20th%C3%B9y%20dung&phone=0357526662&message=&amp;url=https://www.chuatrixuongkhop.site/daunhucxuongkhop?utm_source=xuongkhop-kho-moi&utm_medium=mauqc3&gclid=Cj0KCQjw3ZX4BRDmARIsAFYh7ZJoOIiPj3HEsLsywe6-5KQMcwfy2JD2wF8Fo5gr9yJAJpKV43071pIaAhguEALw_wcB&amp;ref=https://www.google.com/
2020-07-09 11:24:28 name=V%C3%B5%20th%E1%BB%8B%20th%C3%B9y%20dung&phone=0357526662&message=%C4%90au%20x%C6%B0%C6%A1ng%20kh%E1%BB%9Bp%20sau%20sinh&amp;url=https://www.chuatrixuongkhop.site/daunhucxuongkhop?utm_source=xuongkhop-kho-moi&utm_medium=mauqc3&gclid=Cj0KCQjw3ZX4BRDmARIsAFYh7ZJoOIiPj3HEsLsywe6-5KQMcwfy2JD2wF8Fo5gr9yJAJpKV43071pIaAhguEALw_wcB&amp;ref=https://www.google.com/
2020-07-09 11:24:33 name=&phone=&message=&amp;url=https://www.chuatrixuongkhop.site/daunhucxuongkhop?utm_source=xuongkhop-kho-moi&utm_medium=mauqc3&gclid=Cj0KCQjw3ZX4BRDmARIsAFYh7ZJoOIiPj3HEsLsywe6-5KQMcwfy2JD2wF8Fo5gr9yJAJpKV43071pIaAhguEALw_wcB&amp;ref=https://www.google.com/
2020-07-09 12:04:09 phone=0915899195&amp;url=https://www.trungtamxuongkhop.site/xuongkhopxumuong?gclid=Cj0KCQjw3ZX4BRDmARIsAFYh7ZJ25uvzrdY_t96iXeAW-bJxhmSXSxad2fdeDz1zmlO7LNsYttv39P0aAsZXEALw_wcB&amp;ref=https://www.google.com/
2020-07-09 12:04:33 phone=0915&amp;url=https://www.trungtamxuongkhop.site/xuongkhopxumuong?gclid=Cj0KCQjw3ZX4BRDmARIsAFYh7ZJ25uvzrdY_t96iXeAW-bJxhmSXSxad2fdeDz1zmlO7LNsYttv39P0aAsZXEALw_wcB&amp;ref=https://www.google.com/
2020-07-09 12:05:46 phone=0915899195&amp;url=https://www.trungtamxuongkhop.site/xuongkhopxumuong?gclid=Cj0KCQjw3ZX4BRDmARIsAFYh7ZJ25uvzrdY_t96iXeAW-bJxhmSXSxad2fdeDz1zmlO7LNsYttv39P0aAsZXEALw_wcB&amp;ref=https://www.google.com/
2020-07-09 15:35:20 message=&phone=0984904471&name=Nguy%E1%BB%85n%20cong%20hai%20&amp;url=https://www.trungtamxuongkhop.site/xuongkhopxumuong?gclid=EAIaIQobChMIqbTCld-_6gIVE62WCh0_lgE4EAAYAyAAEgKXXfD_BwE&amp;ref=
2020-07-09 15:36:09 message=Thoai%20hoa%20%C4%90%C3%B3t%204v5%20%E1%BB%9F%20%C4%90%C3%B3t%20song%20lung&phone=0984904471&name=Nguy%E1%BB%85n%20cong%20hai%20&amp;url=https://www.trungtamxuongkhop.site/xuongkhopxumuong?gclid=EAIaIQobChMIqbTCld-_6gIVE62WCh0_lgE4EAAYAyAAEgKXXfD_BwE&amp;ref=
2020-07-09 15:55:52 phone=0985337555&amp;url=https://www.trungtamxuongkhop.site/xuongkhopxumuong?gclid=Cj0KCQjwgJv4BRCrARIsAB17JI4x3I68s3T1Wngao_5mRMUmDP4b2r36qysogk-GmAZ444l-TdIf5rcaAgIcEALw_wcB&amp;ref=
2020-07-09 17:22:48 phone=0933034993&amp;url=https://www.trungtamxuongkhop.site/xuongkhopxumuong?gclid=Cj0KCQjwgJv4BRCrARIsAB17JI74lIXc_BdIjnb3zBKrLiePhlyIfb1UJKAhotjGeoJThQhOvimv-oAaAq7XEALw_wcB&amp;ref=
2020-07-09 17:35:03 message=Ch%C3%A1u%20b%E1%BB%8B%20tho%C3%A1i%20h%C3%B3a%20%C4%91%E1%BB%91t%20s%E1%BB%91ng%20l%C6%B0ng&phone=0933034993&name=Quang%20B%E1%BA%A3o%20&amp;url=https://www.trungtamxuongkhop.site/xuongkhopxumuong?gclid=Cj0KCQjwgJv4BRCrARIsAB17JI74lIXc_BdIjnb3zBKrLiePhlyIfb1UJKAhotjGeoJThQhOvimv-oAaAq7XEALw_wcB&amp;ref=
2020-07-09 17:35:21 message=Ch%C3%A1u%20b%E1%BB%8B%20tho%C3%A1i%20h%C3%B3a%20%C4%91%E1%BB%91t%20s%E1%BB%91ng%20l%C6%B0ng&phone=0933034993&name=Quang%20B%E1%BA%A3o%20&amp;url=https://www.trungtamxuongkhop.site/xuongkhopxumuong?gclid=Cj0KCQjwgJv4BRCrARIsAB17JI74lIXc_BdIjnb3zBKrLiePhlyIfb1UJKAhotjGeoJThQhOvimv-oAaAq7XEALw_wcB&amp;ref=
2020-07-09 17:35:31 message=Ch%C3%A1u%20b%E1%BB%8B%20tho%C3%A1i%20h%C3%B3a%20%C4%91%E1%BB%91t%20s%E1%BB%91ng%20l%C6%B0ng&phone=0933034993&name=Quang%20B%E1%BA%A3o%20&amp;url=https://www.trungtamxuongkhop.site/xuongkhopxumuong?gclid=Cj0KCQjwgJv4BRCrARIsAB17JI74lIXc_BdIjnb3zBKrLiePhlyIfb1UJKAhotjGeoJThQhOvimv-oAaAq7XEALw_wcB&amp;ref=
2020-07-09 18:53:27 phone=&amp;url=https://www.trungtamxuongkhop.site/xuongkhopxumuong?gclid=Cj0KCQjwgJv4BRCrARIsAB17JI5cL6dHSKoEfFV4m-B1r8m_aAla9L5YxjIW0320H3kd_vb4ByJbaNAaAmzbEALw_wcB&amp;ref=
2020-07-09 19:00:12 phone=0987654321&amp;url=https://phucotkhang.thaomocdatviet.online/?fbclid=IwAR2ymIGHdX-VLAk7FFlRW8Y28bGjdE9OclBdfkR_B2ennTSBJCL2oyjIwkI&amp;ref=https://www.facebook.com/
2020-07-09 19:32:32 message=Tho%C3%A1i%20ho%C3%A1%20%C4%91%C3%B4t%20x%E1%BB%91ng%20l%C6%B0ng%20v%C3%A0%20c%E1%BB%95&phone=0905538681&name=Nguy%E1%BB%85n%20Thi%20H%E1%BA%ADu&amp;url=https://www.trungtamxuongkhop.site/xuongkhopxumuong?gclid=Cj0KCQjwgJv4BRCrARIsAB17JI7gDie1KBjLYASufGVB1gud7r2oRPs95hEKq8tZr77RN_pM0Zon0FoaApUAEALw_wcB&amp;ref=https://www.google.com/
2020-07-09 21:04:37 phone=&amp;url=https://phucotkhang.thaomocdatviet.online/&amp;ref=http://m.facebook.com/
2020-07-09 21:58:27 phone=&amp;url=https://www.trungtamxuongkhop.site/xuongkhopxumuong?gclid=Cj0KCQjwgJv4BRCrARIsAB17JI5FIEjjJr6-uBjYDGxyZlo6gk6Xc5bPevyKF1Jbn707uLriVCjj6HAaAhTcEALw_wcB&amp;ref=https://www.google.com/
2020-07-09 22:11:22 phone=&amp;url=https://phucotkhang.thaomocdatviet.online/&amp;ref=http://m.facebook.com/
2020-07-09 22:27:02 name=L%C3%AA%20Chi%CC%81%20thi%C3%AA%CC%81t%20&phone=0972224325&amp;url=https://www.chuatrixuongkhop.site/daunhucxuongkhop?utm_source=xuongkhop-thoaihoacotsong&utm_medium=mauqc3&gclid=Cj0KCQjwgJv4BRCrARIsAB17JI52AXjmGh3dOd5K2sOOrqj-yyKD7BchKHsEc5onRcXACS9Z1ugT2AsaAiM-EALw_wcB&amp;ref=https://www.google.com/
2020-07-09 22:27:22 name=&phone=&amp;url=https://www.chuatrixuongkhop.site/daunhucxuongkhop?utm_source=xuongkhop-thoaihoacotsong&utm_medium=mauqc3&gclid=Cj0KCQjwgJv4BRCrARIsAB17JI52AXjmGh3dOd5K2sOOrqj-yyKD7BchKHsEc5onRcXACS9Z1ugT2AsaAiM-EALw_wcB&amp;ref=https://www.google.com/
2020-07-09 22:48:04 phone=&amp;url=https://phucotkhang.thaomocdatviet.online/&amp;ref=http://m.facebook.com/